{
    "KPlugin": {
        "Category": "Debugging",
        "Description": "This plugin provides a frontend for LLDB, a next generation, high-performance C/Obj-C/C++ debugger.",
        "Description[ca@valencia]": "Aquest connector proveeix d'un frontal per al LLDB, un depurador d'alt rendiment per a C/Obj-C/C++ d'última generació.",
        "Description[ca]": "Aquest connector proveeix d'un frontal per al LLDB, un depurador d'alt rendiment per a C/Obj-C/C++ d'última generació.",
        "Description[cs]": "Tento modul poskytuje rozhraní pro LLDB, vysoce výkonný ladicí nástroj nové generace pro C/Obj-C/C++.",
        "Description[de]": "Dieses Modul stellt eine Oberfläche für LLDB zur Verfügung. LLDB ist ein leistungsfähiger Debugger für C, Obj-C und C++.",
        "Description[el]": "Αυτό το πρόσθετο παρέχει ένα περιβάλλον χρήσης για το LLDB, έναν επόμενης γενιάς, υψηλής απόδοσης C/Obj-C/C++ διορθωτή σφαλμάτων.",
        "Description[en_GB]": "This plugin provides a frontend for LLDB, a next generation, high-performance C/Obj-C/C++ debugger.",
        "Description[es]": "Este complemento proporciona una interfaz para LLDB, un depurador para C, Obj-C y C++ de nueva generación y alto rendimiento.",
        "Description[et]": "See plugin pakub LLDB - järgmise põlvkonna äärmiselt suure jõudlusega C/Obj-C/C++ siluri - kasutajaliidest.",
        "Description[eu]": "Plugin honek aurrealde bat ematen tu LLDBntzako, C/Obj-C/C++lengoaientzako errendimendu altuko araztaile bat.",
        "Description[fr]": "Ce module fournit une interface pour LLDB, un débogueur de nouvelle génération, haute-performance pour le V / Objective-C / C++.",
        "Description[gl]": "Este complemento fornece unha interface para LLDB, un depurador de nova xeración de alto rendemento para C, Objective-C e C++.",
        "Description[it]": "Questa estensione fornisce un'interfaccia per LLDB, un debugger di nuova generazione ad alte prestazioni per C/Obj-C/C++.",
        "Description[ko]": "이 플러그인은 차세대 고성능 C/Obj-C/C++ 디버거인 LLDB 프론트엔드를 제공합니다.",
        "Description[nl]": "Deze plugin levert een frontend voor LLDB, een volgende generatie met hoge prestaties voor debuggen van C/Obj-C/C++.",
        "Description[pl]": "Udostępnia interfejs do LLDB, wysokiej wydajności programu diagnostycznego następnej generacji dla C/Obj-C/C++.",
        "Description[pt]": "Este 'plugin' oferece uma interface para o LLDB, um depurador de código para C/Obj-C/C++ de nova geração, com alta performance.",
        "Description[pt_BR]": "Este plugin oferece uma interface para o LLDB, um depurador de código com alta performance para C/Obj-C/C++ de nova geração.",
        "Description[sk]": "Tento modul poskytuje rozhranie pre LLDB, novú generáciu vysokovýkonného debuggera C/Obj-C/C++.",
        "Description[sl]": "Ta vstavek prinaša začelje za LLDB, novo generacijo visoko zmogljivega razhroščevalnika za C/Obj-C/C++.",
        "Description[sv]": "Insticksprogrammet tillhandahåller ett gränssnitt till LLDB, nästa generations avlusare för C, Obj-C, C++ med hög prestanda.",
        "Description[tr]": "Bu eklenti gelecek nesil, yüksek performanslı C/Obj-C/C++ hata ayıklayıcı olan LLDB için ön yüz sağlar.",
        "Description[uk]": "Цей додаток є обгорткою до LLDB, високошвидкісного засобу діагностики коду мовами C/Obj-C/C++.",
        "Description[x-test]": "xxThis plugin provides a frontend for LLDB, a next generation, high-performance C/Obj-C/C++ debugger.xx",
        "Description[zh_CN]": "此插件提供了 LLDB 前端，LLDB 是一个下一代的、高性能的 C/Obj-C/C++ 的调试器。",
        "Icon": "kdevelop",
        "Id": "kdevlldb",
        "License": "GPL",
        "Name": "LLDB Support",
        "Name[ca@valencia]": "Implementació del LLDB",
        "Name[ca]": "Implementació del LLDB",
        "Name[cs]": "Podpora LLDB",
        "Name[de]": "Unterstützung für LLDB",
        "Name[el]": "Υποστήριξη LLDB",
        "Name[en_GB]": "LLDB Support",
        "Name[es]": "Implementación de LLDB",
        "Name[et]": "LLDB toetus",
        "Name[eu]": "LLDB bateragarritasuna",
        "Name[fr]": "Prise en charge de LLDB",
        "Name[gl]": "Compatibilidade con LLDB.",
        "Name[it]": "Supporto per LLDB",
        "Name[ko]": "LLDB 지원",
        "Name[nl]": "Ondersteuning voor LLDB",
        "Name[pl]": "Obsługa LLDB",
        "Name[pt]": "Suporte para o LLDB",
        "Name[pt_BR]": "Suporte ao LLDB",
        "Name[sk]": "Podpora LLDB",
        "Name[sl]": "Podpora za LLDB",
        "Name[sv]": "LLDB-stöd",
        "Name[tr]": "LLDB Desteği",
        "Name[uk]": "Підтримка LLDB",
        "Name[x-test]": "xxLLDB Supportxx",
        "Name[zh_CN]": "LLDB 支持",
        "ServiceTypes": [
            "KDevelop/Plugin"
        ]
    },
    "X-KDevelop-Category": "Global",
    "X-KDevelop-IRequired": [
        "org.kdevelop.IExecutePlugin"
    ],
    "X-KDevelop-Interfaces": [
        "org.kdevelop.IStatus"
    ],
    "X-KDevelop-Mode": "GUI"
}
